com\elthis\objects\GameObject.class
com\mycompany\game\MainApp$6.class
com\elthis\input\Input.class
com\elthis\objects\environment\BrickWall.class
com\mycompany\game\MainApp$4.class
com\elthis\repository\Repository.class
com\mycompany\game\MainApp$8.class
com\elthis\objects\Hero.class
com\elthis\time\Time.class
com\mycompany\game\MainApp$2.class
com\elthis\objects\Explosion.class
com\elthis\objects\Monster.class
com\elthis\objects\Spell.class
com\elthis\graphics\AnimatedSprite.class
com\elthis\objects\AmbientLight.class
com\elthis\objects\lights\SpellLight.class
com\mycompany\game\MainApp$5.class
com\mycompany\game\MainApp$7.class
com\mycompany\game\Game.class
com\mycompany\game\MainApp.class
com\elthis\objects\GameLevel.class
com\mycompany\game\MainApp$3.class
com\elthis\objects\component\Component.class
com\elthis\objects\component\Collider2D.class
com\elthis\objects\Camera.class
com\elthis\objects\environment\Dirt.class
com\elthis\objects\PointLight.class
com\mycompany\game\MainApp$1.class
